<svg xmlns="http://www.w3.org/2000/svg" viewBox="2439 1872 90 90">
  <defs>
    <style>
      .cls-1 {
        fill: #95989a;
      }
    </style>
  </defs>
  <g id="outdoors" transform="translate(2439 1872)">
    <path id="Path_574" data-name="Path 574" class="cls-1" d="M45,0A45,45,0,1,0,90,45,45,45,0,0,0,45,0Zm0,87.373A42.344,42.344,0,1,1,87.344,45.029,42.352,42.352,0,0,1,45,87.373Z"/>
    <path id="Path_575" data-name="Path 575" class="cls-1" d="M73.9,141.472a.9.9,0,0,0,.058-.2l.029-.029v-.029a.028.028,0,0,1,.029-.029,1.987,1.987,0,0,0,.087-.231c.115-.375.289-1.039.52-2.049.231-.981.52-2.309.953-3.9a30.266,30.266,0,0,1,2.165-5.686,20.312,20.312,0,0,1,2.223-3.464,19.084,19.084,0,0,1,3.724-3.521q.563-.39,1.212-.779c.2-.115.433-.231.635-.346l.318-.173.029-.029s.26-.144.173-.087l.058-.029.115-.029.4-.144c.2-.087.433-.173.635-.26l.346-.144a1.99,1.99,0,0,1,.289-.115c.2-.058.375-.144.577-.2a32.431,32.431,0,0,1,4.359-1.126c.693-.144,1.328-.26,1.963-.346.577-.087,1.155-.2,1.761-.289,1.1-.2,2.049-.375,2.8-.577a6.023,6.023,0,0,0,1.905-.808,4.682,4.682,0,0,0,.808-.722c.144-.144.231-.318.375-.462v-.029s-.029.058,0,.029l.029-.058.029-.087a.089.089,0,0,0,.029-.058l.029-.029.087-.173a1.828,1.828,0,0,0,.115-.548.776.776,0,0,0-.115-.462,4.493,4.493,0,0,0-1.847-1.328,30.539,30.539,0,0,0-3.175-1.212c-1.155-.375-2.367-.75-3.608-1.155a21.769,21.769,0,0,1-3.752-1.588,7.158,7.158,0,0,1-1.818-1.472,3.763,3.763,0,0,1-.635-1.1,3.519,3.519,0,0,1-.2-1.183,4.232,4.232,0,0,1,.577-1.905l.058-.087.029-.058v-.029l.029-.029.087-.144c.058-.087.144-.2.2-.289.115-.2.289-.433.433-.635a18.6,18.6,0,0,1,1.963-2.251,15.849,15.849,0,0,1,4.5-3.031,19.916,19.916,0,0,1,4.1-1.241c1.155-.2,2.078-.289,2.713-.375s.953-.144.953-.144-.318.115-.895.289c-.606.173-1.472.4-2.54.779A15.647,15.647,0,0,0,96.328,97.8,12.167,12.167,0,0,0,93.1,101a11.848,11.848,0,0,0-1.183,2.136,3.44,3.44,0,0,0-.231.577,4.343,4.343,0,0,0-.2.924,3.3,3.3,0,0,0,.635.924,8.858,8.858,0,0,0,1.01.577,12.162,12.162,0,0,0,2.4.577c1.155.231,2.4.433,3.695.664a36.76,36.76,0,0,1,4.128.981,17.349,17.349,0,0,1,2.251.895,9.287,9.287,0,0,1,2.28,1.53,6.659,6.659,0,0,1,1.674,2.425,6.371,6.371,0,0,1,.375,2.684c-.029.2-.029.4-.058.635l-.115.577a7.314,7.314,0,0,1-.2,1.1,10.186,10.186,0,0,1-.837,2.251,12.738,12.738,0,0,1-3.435,3.926,29.063,29.063,0,0,1-4.012,2.511c-.606.318-1.183.635-1.79.924-.548.289-1.068.577-1.53.837a5.846,5.846,0,0,0-.75.577,8.042,8.042,0,0,0-2.107,2.944,5.451,5.451,0,0,0-.433,1.3,23.271,23.271,0,0,0,.231,3.089c.144,1.039.318,2.049.491,2.973.144.895.289,1.732.346,2.367,0,.173.029.318.029.433v.4a.5.5,0,0,0,.029.2Z" transform="translate(-52.569 -67.579)"/>
    <path id="Path_576" data-name="Path 576" class="cls-1" d="M59.684,93.912l-7.043-7.793H55.73a.667.667,0,0,0,.4-1.126l-5.975-6.668h2.309a.421.421,0,0,0,.26-.722l-5.86-6.523a.354.354,0,0,0-.548,0L40.46,77.6a.437.437,0,0,0,.26.722h2.309l-6,6.668a.67.67,0,0,0,.4,1.126h3.089L33.5,93.912a.908.908,0,0,0,.577,1.53H44.7v4.82H48.86v-4.82H59.107A.915.915,0,0,0,59.684,93.912Z" transform="translate(-23.661 -50.471)"/>
    <path id="Path_577" data-name="Path 577" class="cls-1" d="M215.572,160.112l-6.725-7.793h2.944c.491,0,.75-.693.4-1.126l-5.744-6.668h2.223a.437.437,0,0,0,.26-.722L203.3,137.28a.325.325,0,0,0-.52,0l-5.571,6.523a.437.437,0,0,0,.26.722H199.7l-5.715,6.668c-.346.4-.115,1.126.4,1.126h2.944l-6.7,7.793a.917.917,0,0,0,.548,1.53h10.131v4.82h3.954v-4.82h9.785C215.716,161.642,216.063,160.66,215.572,160.112Z" transform="translate(-135.444 -97.562)"/>
    <path id="Path_578" data-name="Path 578" class="cls-1" d="M198.7,61.391l-5.051-5.427h2.223a.454.454,0,0,0,.289-.779l-4.3-4.647h1.674a.3.3,0,0,0,.2-.491l-4.214-4.561a.246.246,0,0,0-.375,0l-4.214,4.561a.289.289,0,0,0,.2.491H186.8l-4.3,4.647a.461.461,0,0,0,.289.779h2.223l-5.051,5.427a.627.627,0,0,0,.4,1.068h7.563v3.348H190.9V62.459h7.36A.643.643,0,0,0,198.7,61.391Z" transform="translate(-127.891 -32.295)"/>
  </g>
</svg>
